{
	"info": {
		"_postman_id": "3b44303b-170c-4fb7-a490-96d6fae5af98",
		"name": "Mono",
		"description": "This template contains a boilerplate for documentation that you can quickly customize and reuse.\n\n### How to use this template:\n\n- Replace the content given brackets (()) with your API's details.\n- Tips are formatted in `codespan` - feel free to read and remove them.\n    \n\n---\n\n`Start with a brief overview of what your API offers.`\n\nThe ((product name)) provides many API products, tools, and resources that enable you to ((add product value here)).\n\n`You can also list the APIs you offer, link to the relevant pages, or do both in this section.`\n\n## **Getting started guide**\n\n`List the steps or points required to start using your APIs. Make sure to cover everything required to reach success with your API as quickly as possible.`\n\nTo start using the ((add APIs here)), you need to -\n\n`The points given below are from The Postman API's documentation. You can reference it to write your own getting started guide.`\n\n- You must use a valid API Key to send requests to the API endpoints. You can get your API key from Postman's [integrations dashboard](https://go.postman.co/settings/me/api-keys).\n- The API has [rate and usage limits](https://postman.postman.co/workspace/Collection-Templates~6311738d-2e70-441f-ae12-78caf078c5b7/collection/22517504-e9c28f47-1253-44af-a2f3-20dce4da1f18?ctx=documentation#rate-and-usage-limits).\n- The API only responds to HTTPS-secured communications. Any requests sent via HTTP return an HTTP 301 redirect to the corresponding HTTPS resources.\n- The API returns request responses in JSON format. When an API request returns an error, it is sent in the JSON response as an error key.\n    \n\n## Authentication\n\n`Add details on the authorization keys/tokens required, steps that cover how to get them, and the relevant error codes.`\n\nThe ((product name)) API uses ((add your API's authorization type)) for authentication.\n\n`The details given below are from the Postman API's documentation. You can reference it to write your own authentication section.`\n\nPostman uses API keys for authentication. You can generate a Postman API key in the [API keys](https://postman.postman.co/settings/me/api-keys) section of your Postman account settings.\n\nYou must include an API key in each request to the Postman API with the X-Api-Key request header.\n\n### Authentication error response\n\nIf an API key is missing, malformed, or invalid, you will receive an HTTP 401 Unauthorized response code.\n\n## Rate and usage limits\n\n`Use this section to cover your APIs' terms of use. Include API limits, constraints, and relevant error codes, so consumers understand the permitted API usage and practices.`\n\n`The example given below is from The Postman API's documentation. Use it as a reference to write your APIs' terms of use.`\n\nAPI access rate limits apply at a per-API key basis in unit time. The limit is 300 requests per minute. Also, depending on your plan, you may have usage limits. If you exceed either limit, your request will return an HTTP 429 Too Many Requests status code.\n\nEach API response returns the following set of headers to help you identify your use status:\n\n| Header | Description |\n| --- | --- |\n| `X-RateLimit-Limit` | The maximum number of requests that the consumer is permitted to make per minute. |\n| `X-RateLimit-Remaining` | The number of requests remaining in the current rate limit window. |\n| `X-RateLimit-Reset` | The time at which the current rate limit window resets in UTC epoch seconds. |\n\n### 503 response\n\nAn HTTP `503` response from our servers indicates there is an unexpected spike in API access traffic. The server is usually operational within the next five minutes. If the outage persists or you receive any other form of an HTTP `5XX` error, [contact support](https://support.postman.com/hc/en-us/requests/new/).\n\n### **Need some help?**\n\n`Add links that customers can refer to whenever they need help.`\n\nIn case you have questions, go through our tutorials ((link to your video or help documentation here)). Or visit our FAQ page ((link to the relevant page)).\n\nOr you can check out our community forum, there’s a good chance our community has an answer for you. Visit our developer forum ((link to developer forum)) to review topics, ask questions, and learn from others.\n\n`You can also document or add links to libraries, code examples, and other resources needed to make a request.`",
		"schema": "https://schema.getpostman.com/json/collection/v2.1.0/collection.json",
		"_exporter_id": "21759621",
		"_collection_link": "https://it-ibj.postman.co/workspace/Mono~e4c5c7b0-f219-419d-bb8d-9e9df8b546b0/collection/21759621-3b44303b-170c-4fb7-a490-96d6fae5af98?action=share&source=collection_link&creator=21759621"
	},
	"item": [
		{
			"name": "User",
			"item": [
				{
					"name": "Auth",
					"item": [
						{
							"name": "Register",
							"request": {
								"method": "POST",
								"header": [],
								"body": {
									"mode": "raw",
									"raw": "{\r\n    \"name\":\"user 12\",\r\n    \"email\":\"user12@mono.com\",\r\n    \"password\":\"1234567\"\r\n\r\n}",
									"options": {
										"raw": {
											"language": "json"
										}
									}
								},
								"url": {
									"raw": "{{base_url}}/api/v1/auth/register",
									"host": [
										"{{base_url}}"
									],
									"path": [
										"api",
										"v1",
										"auth",
										"register"
									]
								}
							},
							"response": [
								{
									"name": "Success",
									"originalRequest": {
										"method": "POST",
										"header": [],
										"body": {
											"mode": "raw",
											"raw": "{\r\n    \"name\":\"user 12\",\r\n    \"email\":\"user12@mono.com\",\r\n    \"password\":\"1234567\"\r\n\r\n}",
											"options": {
												"raw": {
													"language": "json"
												}
											}
										},
										"url": {
											"raw": "{{base_url}}/api/v1/auth/register",
											"host": [
												"{{base_url}}"
											],
											"path": [
												"api",
												"v1",
												"auth",
												"register"
											]
										}
									},
									"status": "OK",
									"code": 200,
									"_postman_previewlanguage": "json",
									"header": [
										{
											"key": "X-Powered-By",
											"value": "Express"
										},
										{
											"key": "Content-Type",
											"value": "application/json; charset=utf-8"
										},
										{
											"key": "Content-Length",
											"value": "102"
										},
										{
											"key": "ETag",
											"value": "W/\"66-q1vezC+Do37a3CpTf5w5x+o/8UU\""
										},
										{
											"key": "Date",
											"value": "Thu, 05 Oct 2023 12:45:31 GMT"
										},
										{
											"key": "Connection",
											"value": "keep-alive"
										},
										{
											"key": "Keep-Alive",
											"value": "timeout=5"
										}
									],
									"cookie": [],
									"body": "{\n    \"meta\": {\n        \"status\": \"success\",\n        \"message\": \"Congratulations! Your registration was successful\",\n        \"code\": 200\n    }\n}"
								},
								{
									"name": "Error 422",
									"originalRequest": {
										"method": "POST",
										"header": [],
										"body": {
											"mode": "raw",
											"raw": "{\r\n    \"name\":\"\",\r\n    \"email\":\"user1@mono.com\",\r\n    \"password\":\"1234567\"\r\n\r\n}",
											"options": {
												"raw": {
													"language": "json"
												}
											}
										},
										"url": {
											"raw": "{{base_url}}/api/v1/auth/register",
											"host": [
												"{{base_url}}"
											],
											"path": [
												"api",
												"v1",
												"auth",
												"register"
											]
										}
									},
									"status": "Unprocessable Entity",
									"code": 422,
									"_postman_previewlanguage": "json",
									"header": [
										{
											"key": "X-Powered-By",
											"value": "Express"
										},
										{
											"key": "Content-Type",
											"value": "application/json; charset=utf-8"
										},
										{
											"key": "Content-Length",
											"value": "141"
										},
										{
											"key": "ETag",
											"value": "W/\"8d-9pelHc3U9XxMf/XGD1+WJDT2f8U\""
										},
										{
											"key": "Date",
											"value": "Thu, 05 Oct 2023 12:44:56 GMT"
										},
										{
											"key": "Connection",
											"value": "keep-alive"
										},
										{
											"key": "Keep-Alive",
											"value": "timeout=5"
										}
									],
									"cookie": [],
									"body": "{\n    \"meta\": {\n        \"status\": \"failure\",\n        \"message\": \"Data tidak valid\",\n        \"code\": 422\n    },\n    \"errors\": [\n        \"Name cannot be empty\",\n        \"Sorry, this email is already in use\"\n    ]\n}"
								}
							]
						},
						{
							"name": "Login",
							"request": {
								"method": "POST",
								"header": [],
								"body": {
									"mode": "raw",
									"raw": "{\r\n    \"email\":\"user1@mono.com\",\r\n    \"password\":\"1234567\"\r\n}",
									"options": {
										"raw": {
											"language": "json"
										}
									}
								},
								"url": {
									"raw": "{{base_url}}/api/v1/auth/login",
									"host": [
										"{{base_url}}"
									],
									"path": [
										"api",
										"v1",
										"auth",
										"login"
									]
								}
							},
							"response": [
								{
									"name": "Success",
									"originalRequest": {
										"method": "POST",
										"header": [],
										"body": {
											"mode": "raw",
											"raw": "{\r\n    \"email\":\"user1@mono.com\",\r\n    \"password\":\"1234567\"\r\n\r\n}",
											"options": {
												"raw": {
													"language": "json"
												}
											}
										},
										"url": {
											"raw": "{{base_url}}/api/v1/auth/login",
											"host": [
												"{{base_url}}"
											],
											"path": [
												"api",
												"v1",
												"auth",
												"login"
											]
										}
									},
									"status": "OK",
									"code": 200,
									"_postman_previewlanguage": "json",
									"header": [
										{
											"key": "X-Powered-By",
											"value": "Express"
										},
										{
											"key": "Content-Type",
											"value": "application/json; charset=utf-8"
										},
										{
											"key": "Content-Length",
											"value": "445"
										},
										{
											"key": "ETag",
											"value": "W/\"1bd-5TN/M8nX88TEglZS4YrZrOAAojM\""
										},
										{
											"key": "Date",
											"value": "Thu, 05 Oct 2023 13:25:03 GMT"
										},
										{
											"key": "Connection",
											"value": "keep-alive"
										},
										{
											"key": "Keep-Alive",
											"value": "timeout=5"
										}
									],
									"cookie": [],
									"body": "{\n    \"meta\": {\n        \"status\": \"success\",\n        \"message\": \"Welcome! You have successfully logged in\",\n        \"code\": 200\n    },\n    \"data\": {\n        \"token\": \"eyJhbGciOiJIUzI1NiIsInR5cCI6IkpXVCJ9.eyJ1c2VyIjoibW9ubyB1c2VyMk0wbk8iLCJpYXQiOjE2OTY1MTIzMDMsImV4cCI6OTU4MDUxMjMwM30.xqG3wTU2PFMPq33p8fzafDXKkhBsQQzyWLeiHG25oFs\",\n        \"expires_in\": 7884000000,\n        \"user\": {\n            \"id\": 2,\n            \"name\": \"mono user\",\n            \"email\": \"user1@mono.com\",\n            \"created_at\": \"2023-10-04 00:30:04\",\n            \"updated_at\": \"2023-10-04 00:30:04\",\n            \"deleted_at\": null\n        }\n    }\n}"
								},
								{
									"name": "Error 422",
									"originalRequest": {
										"method": "POST",
										"header": [],
										"body": {
											"mode": "raw",
											"raw": "{\r\n    \"email\":\"user1@mono.com\"\r\n \r\n\r\n}",
											"options": {
												"raw": {
													"language": "json"
												}
											}
										},
										"url": {
											"raw": "{{base_url}}/api/v1/auth/login",
											"host": [
												"{{base_url}}"
											],
											"path": [
												"api",
												"v1",
												"auth",
												"login"
											]
										}
									},
									"status": "Unprocessable Entity",
									"code": 422,
									"_postman_previewlanguage": "json",
									"header": [
										{
											"key": "X-Powered-By",
											"value": "Express"
										},
										{
											"key": "Content-Type",
											"value": "application/json; charset=utf-8"
										},
										{
											"key": "Content-Length",
											"value": "107"
										},
										{
											"key": "ETag",
											"value": "W/\"6b-1mrOx7BTBrDPVBzm/L9QaAHymeQ\""
										},
										{
											"key": "Date",
											"value": "Thu, 05 Oct 2023 13:28:03 GMT"
										},
										{
											"key": "Connection",
											"value": "keep-alive"
										},
										{
											"key": "Keep-Alive",
											"value": "timeout=5"
										}
									],
									"cookie": [],
									"body": "{\n    \"meta\": {\n        \"status\": \"failure\",\n        \"message\": \"Data tidak valid\",\n        \"code\": 422\n    },\n    \"errors\": [\n        \"Password cannot be empty\"\n    ]\n}"
								},
								{
									"name": "Error 401",
									"originalRequest": {
										"method": "POST",
										"header": [],
										"body": {
											"mode": "raw",
											"raw": "{\r\n    \"email\":\"user1@mono.com\",\r\n    \"password\":\"12345671\"\r\n\r\n}",
											"options": {
												"raw": {
													"language": "json"
												}
											}
										},
										"url": {
											"raw": "{{base_url}}/api/v1/auth/login",
											"host": [
												"{{base_url}}"
											],
											"path": [
												"api",
												"v1",
												"auth",
												"login"
											]
										}
									},
									"status": "Unauthorized",
									"code": 401,
									"_postman_previewlanguage": "json",
									"header": [
										{
											"key": "X-Powered-By",
											"value": "Express"
										},
										{
											"key": "Content-Type",
											"value": "application/json; charset=utf-8"
										},
										{
											"key": "Content-Length",
											"value": "94"
										},
										{
											"key": "ETag",
											"value": "W/\"5e-D3XszBi7slBWm3T8sW/rlQyD1hg\""
										},
										{
											"key": "Date",
											"value": "Thu, 05 Oct 2023 13:28:22 GMT"
										},
										{
											"key": "Connection",
											"value": "keep-alive"
										},
										{
											"key": "Keep-Alive",
											"value": "timeout=5"
										}
									],
									"cookie": [],
									"body": "{\n    \"meta\": {\n        \"status\": \"failure\",\n        \"message\": \"Incorrect Email or Password\",\n        \"code\": 401\n    },\n    \"errors\": null\n}"
								}
							]
						}
					]
				},
				{
					"name": "Transaction",
					"item": [
						{
							"name": "All",
							"request": {
								"method": "GET",
								"header": [],
								"url": {
									"raw": "{{base_url}}/api/v1/transaction",
									"host": [
										"{{base_url}}"
									],
									"path": [
										"api",
										"v1",
										"transaction"
									],
									"query": [
										{
											"key": "page",
											"value": "1",
											"disabled": true
										},
										{
											"key": "limit",
											"value": "10",
											"disabled": true
										}
									]
								}
							},
							"response": [
								{
									"name": "Success",
									"originalRequest": {
										"method": "GET",
										"header": [],
										"url": {
											"raw": "{{base_url}}/api/v1/transaction",
											"host": [
												"{{base_url}}"
											],
											"path": [
												"api",
												"v1",
												"transaction"
											]
										}
									},
									"status": "OK",
									"code": 200,
									"_postman_previewlanguage": "json",
									"header": [
										{
											"key": "X-Powered-By",
											"value": "Express"
										},
										{
											"key": "Content-Type",
											"value": "application/json; charset=utf-8"
										},
										{
											"key": "Content-Length",
											"value": "352"
										},
										{
											"key": "ETag",
											"value": "W/\"160-5RwGgCcz9tjug9wiPGbZS1L2Nkw\""
										},
										{
											"key": "Date",
											"value": "Thu, 05 Oct 2023 14:01:47 GMT"
										},
										{
											"key": "Connection",
											"value": "keep-alive"
										},
										{
											"key": "Keep-Alive",
											"value": "timeout=5"
										}
									],
									"cookie": [],
									"body": "{\n    \"meta\": {\n        \"status\": \"success\",\n        \"message\": \"Success! get data transactions\",\n        \"code\": 200\n    },\n    \"data\": {\n        \"current_page\": 1,\n        \"total_page\": 1,\n        \"total_records\": 1,\n        \"records\": [\n            {\n                \"id\": 1,\n                \"name\": \"Uang Mingguan\",\n                \"type\": \"INCOME\",\n                \"date\": \"2023-01-01 19:00:00\",\n                \"amount\": \"100000.00\",\n                \"user_id\": 2,\n                \"created_at\": \"2023-10-05 21:01:02\",\n                \"updated_at\": \"2023-10-05 21:01:02\",\n                \"deleted_at\": null\n            }\n        ]\n    }\n}"
								},
								{
									"name": "Error 401",
									"originalRequest": {
										"method": "GET",
										"header": [],
										"body": {
											"mode": "raw",
											"raw": "{\r\n    \"type\":\"INCOME\",\r\n    \"name\":\"Uang Kaget\",\r\n    \"amount\":\"300000\",\r\n    \"date\":\"2023-01-01 19:00:00\"\r\n}",
											"options": {
												"raw": {
													"language": "json"
												}
											}
										},
										"url": {
											"raw": "{{base_url}}/api/v1/transaction",
											"host": [
												"{{base_url}}"
											],
											"path": [
												"api",
												"v1",
												"transaction"
											]
										}
									},
									"status": "Unauthorized",
									"code": 401,
									"_postman_previewlanguage": "json",
									"header": [
										{
											"key": "X-Powered-By",
											"value": "Express"
										},
										{
											"key": "Content-Type",
											"value": "application/json; charset=utf-8"
										},
										{
											"key": "Content-Length",
											"value": "82"
										},
										{
											"key": "ETag",
											"value": "W/\"52-ikxb+7+SsomLvvSv/I5vBzE88YI\""
										},
										{
											"key": "Date",
											"value": "Thu, 05 Oct 2023 16:54:15 GMT"
										},
										{
											"key": "Connection",
											"value": "keep-alive"
										},
										{
											"key": "Keep-Alive",
											"value": "timeout=5"
										}
									],
									"cookie": [],
									"body": "{\n    \"meta\": {\n        \"status\": \"failure\",\n        \"message\": \"Unauthenticated\",\n        \"code\": 401\n    },\n    \"errors\": null\n}"
								}
							]
						},
						{
							"name": "Wallet",
							"request": {
								"method": "GET",
								"header": [],
								"url": {
									"raw": "{{base_url}}/api/v1/transaction/wallet",
									"host": [
										"{{base_url}}"
									],
									"path": [
										"api",
										"v1",
										"transaction",
										"wallet"
									]
								}
							},
							"response": [
								{
									"name": "Error 401",
									"originalRequest": {
										"method": "GET",
										"header": [],
										"body": {
											"mode": "raw",
											"raw": "{\r\n    \"type\":\"INCOME\",\r\n    \"name\":\"Uang Kaget\",\r\n    \"amount\":\"300000\",\r\n    \"date\":\"2023-01-01 19:00:00\"\r\n}",
											"options": {
												"raw": {
													"language": "json"
												}
											}
										},
										"url": {
											"raw": "{{base_url}}/api/v1/transaction",
											"host": [
												"{{base_url}}"
											],
											"path": [
												"api",
												"v1",
												"transaction"
											]
										}
									},
									"status": "Unauthorized",
									"code": 401,
									"_postman_previewlanguage": "json",
									"header": [
										{
											"key": "X-Powered-By",
											"value": "Express"
										},
										{
											"key": "Content-Type",
											"value": "application/json; charset=utf-8"
										},
										{
											"key": "Content-Length",
											"value": "82"
										},
										{
											"key": "ETag",
											"value": "W/\"52-ikxb+7+SsomLvvSv/I5vBzE88YI\""
										},
										{
											"key": "Date",
											"value": "Thu, 05 Oct 2023 16:54:15 GMT"
										},
										{
											"key": "Connection",
											"value": "keep-alive"
										},
										{
											"key": "Keep-Alive",
											"value": "timeout=5"
										}
									],
									"cookie": [],
									"body": "{\n    \"meta\": {\n        \"status\": \"failure\",\n        \"message\": \"Unauthenticated\",\n        \"code\": 401\n    },\n    \"errors\": null\n}"
								},
								{
									"name": "Success",
									"originalRequest": {
										"method": "GET",
										"header": [],
										"url": {
											"raw": "{{base_url}}/api/v1/transaction/wallet",
											"host": [
												"{{base_url}}"
											],
											"path": [
												"api",
												"v1",
												"transaction",
												"wallet"
											]
										}
									},
									"status": "OK",
									"code": 200,
									"_postman_previewlanguage": "json",
									"header": [
										{
											"key": "X-Powered-By",
											"value": "Express"
										},
										{
											"key": "Content-Type",
											"value": "application/json; charset=utf-8"
										},
										{
											"key": "Content-Length",
											"value": "141"
										},
										{
											"key": "ETag",
											"value": "W/\"8d-P/OMQAbIqrpoO3YHg8++VUsyxb8\""
										},
										{
											"key": "Date",
											"value": "Thu, 05 Oct 2023 17:13:26 GMT"
										},
										{
											"key": "Connection",
											"value": "keep-alive"
										},
										{
											"key": "Keep-Alive",
											"value": "timeout=5"
										}
									],
									"cookie": [],
									"body": "{\n    \"meta\": {\n        \"status\": \"success\",\n        \"message\": \"Success! get wallet\",\n        \"code\": 200\n    },\n    \"data\": {\n        \"income\": \"100000.00\",\n        \"expense\": \"0.00\",\n        \"balance\": \"100000.00\"\n    }\n}"
								}
							]
						},
						{
							"name": "Detail",
							"request": {
								"method": "GET",
								"header": [],
								"url": {
									"raw": "{{base_url}}/api/v1/transaction/:id",
									"host": [
										"{{base_url}}"
									],
									"path": [
										"api",
										"v1",
										"transaction",
										":id"
									],
									"variable": [
										{
											"key": "id",
											"value": "4"
										}
									]
								}
							},
							"response": [
								{
									"name": "Success",
									"originalRequest": {
										"method": "GET",
										"header": [],
										"url": {
											"raw": "{{base_url}}/api/v1/transaction/:id",
											"host": [
												"{{base_url}}"
											],
											"path": [
												"api",
												"v1",
												"transaction",
												":id"
											],
											"variable": [
												{
													"key": "id",
													"value": "1"
												}
											]
										}
									},
									"status": "OK",
									"code": 200,
									"_postman_previewlanguage": "json",
									"header": [
										{
											"key": "X-Powered-By",
											"value": "Express"
										},
										{
											"key": "Content-Type",
											"value": "application/json; charset=utf-8"
										},
										{
											"key": "Content-Length",
											"value": "188"
										},
										{
											"key": "ETag",
											"value": "W/\"bc-qQ+s8Ra3j/07Bfi17DaVKvU7FdQ\""
										},
										{
											"key": "Date",
											"value": "Thu, 05 Oct 2023 17:18:58 GMT"
										},
										{
											"key": "Connection",
											"value": "keep-alive"
										},
										{
											"key": "Keep-Alive",
											"value": "timeout=5"
										}
									],
									"cookie": [],
									"body": "{\n    \"meta\": {\n        \"status\": \"success\",\n        \"message\": \"Success! get data transactions\",\n        \"code\": 200\n    },\n    \"data\": {\n        \"id\": 1,\n        \"name\": \"Uang Mingguan\",\n        \"type\": \"INCOME\",\n        \"amount\": \"100000.00\",\n        \"date\": \"2023-01-01 19:00:00\"\n    }\n}"
								}
							]
						},
						{
							"name": "Create",
							"request": {
								"method": "POST",
								"header": [],
								"body": {
									"mode": "raw",
									"raw": "{\r\n    \"type\":\"EXPENSE\",\r\n    \"name\":\"Beli Rumah Kucing\",\r\n    \"amount\":\"500000\",\r\n    \"date\":\"2023-01-01 19:00:00\"\r\n}",
									"options": {
										"raw": {
											"language": "json"
										}
									}
								},
								"url": {
									"raw": "{{base_url}}/api/v1/transaction",
									"host": [
										"{{base_url}}"
									],
									"path": [
										"api",
										"v1",
										"transaction"
									]
								}
							},
							"response": [
								{
									"name": "Success",
									"originalRequest": {
										"method": "POST",
										"header": [],
										"body": {
											"mode": "raw",
											"raw": "{\r\n    \"type\":\"INCOME\",\r\n    \"name\":\"Uang Mingguan\",\r\n    \"amount\":\"100000\",\r\n    \"date\":\"2023-01-01 19:00\"\r\n}",
											"options": {
												"raw": {
													"language": "json"
												}
											}
										},
										"url": {
											"raw": "{{base_url}}/api/v1/transaction",
											"host": [
												"{{base_url}}"
											],
											"path": [
												"api",
												"v1",
												"transaction"
											]
										}
									},
									"status": "Created",
									"code": 201,
									"_postman_previewlanguage": "json",
									"header": [
										{
											"key": "X-Powered-By",
											"value": "Express"
										},
										{
											"key": "Content-Type",
											"value": "application/json; charset=utf-8"
										},
										{
											"key": "Content-Length",
											"value": "81"
										},
										{
											"key": "ETag",
											"value": "W/\"51-/Mo6RpfqbmuHeoZvvAeNw+/8HLo\""
										},
										{
											"key": "Date",
											"value": "Thu, 05 Oct 2023 14:01:02 GMT"
										},
										{
											"key": "Connection",
											"value": "keep-alive"
										},
										{
											"key": "Keep-Alive",
											"value": "timeout=5"
										}
									],
									"cookie": [],
									"body": "{\n    \"meta\": {\n        \"status\": \"success\",\n        \"message\": \"Success! create transactions\",\n        \"code\": 201\n    }\n}"
								},
								{
									"name": "Error 422",
									"originalRequest": {
										"method": "POST",
										"header": [],
										"body": {
											"mode": "raw",
											"raw": "{\r\n    \"type\":\"INCOME\",\r\n   \r\n    \"amount\":\"300000\",\r\n    \"date\":\"2023-01-01 19:00:00\"\r\n}",
											"options": {
												"raw": {
													"language": "json"
												}
											}
										},
										"url": {
											"raw": "{{base_url}}/api/v1/transaction",
											"host": [
												"{{base_url}}"
											],
											"path": [
												"api",
												"v1",
												"transaction"
											]
										}
									},
									"status": "Unprocessable Entity",
									"code": 422,
									"_postman_previewlanguage": "json",
									"header": [
										{
											"key": "X-Powered-By",
											"value": "Express"
										},
										{
											"key": "Content-Type",
											"value": "application/json; charset=utf-8"
										},
										{
											"key": "Content-Length",
											"value": "103"
										},
										{
											"key": "ETag",
											"value": "W/\"67-9in+iKeN52c+awW1MJFY+PhN1pQ\""
										},
										{
											"key": "Date",
											"value": "Thu, 05 Oct 2023 16:53:39 GMT"
										},
										{
											"key": "Connection",
											"value": "keep-alive"
										},
										{
											"key": "Keep-Alive",
											"value": "timeout=5"
										}
									],
									"cookie": [],
									"body": "{\n    \"meta\": {\n        \"status\": \"failure\",\n        \"message\": \"Data tidak valid\",\n        \"code\": 422\n    },\n    \"errors\": [\n        \"Name cannot be empty\"\n    ]\n}"
								},
								{
									"name": "Error 401",
									"originalRequest": {
										"method": "POST",
										"header": [],
										"body": {
											"mode": "raw",
											"raw": "{\r\n    \"type\":\"INCOME\",\r\n    \"name\":\"Uang Kaget\",\r\n    \"amount\":\"300000\",\r\n    \"date\":\"2023-01-01 19:00:00\"\r\n}",
											"options": {
												"raw": {
													"language": "json"
												}
											}
										},
										"url": {
											"raw": "{{base_url}}/api/v1/transaction",
											"host": [
												"{{base_url}}"
											],
											"path": [
												"api",
												"v1",
												"transaction"
											]
										}
									},
									"status": "Unauthorized",
									"code": 401,
									"_postman_previewlanguage": "json",
									"header": [
										{
											"key": "X-Powered-By",
											"value": "Express"
										},
										{
											"key": "Content-Type",
											"value": "application/json; charset=utf-8"
										},
										{
											"key": "Content-Length",
											"value": "82"
										},
										{
											"key": "ETag",
											"value": "W/\"52-ikxb+7+SsomLvvSv/I5vBzE88YI\""
										},
										{
											"key": "Date",
											"value": "Thu, 05 Oct 2023 16:54:15 GMT"
										},
										{
											"key": "Connection",
											"value": "keep-alive"
										},
										{
											"key": "Keep-Alive",
											"value": "timeout=5"
										}
									],
									"cookie": [],
									"body": "{\n    \"meta\": {\n        \"status\": \"failure\",\n        \"message\": \"Unauthenticated\",\n        \"code\": 401\n    },\n    \"errors\": null\n}"
								}
							]
						},
						{
							"name": "Update",
							"request": {
								"method": "PUT",
								"header": [],
								"body": {
									"mode": "raw",
									"raw": "{\r\n    \"type\":\"INCOME\",\r\n    \"name\":\"Uang Mingguan\",\r\n    \"amount\":100000,\r\n    \"date\":\"2023-01-01 19:00\"\r\n}",
									"options": {
										"raw": {
											"language": "json"
										}
									}
								},
								"url": {
									"raw": "{{base_url}}/api/v1/transaction/:id",
									"host": [
										"{{base_url}}"
									],
									"path": [
										"api",
										"v1",
										"transaction",
										":id"
									],
									"variable": [
										{
											"key": "id",
											"value": "2"
										}
									]
								}
							},
							"response": [
								{
									"name": "Success",
									"originalRequest": {
										"method": "PUT",
										"header": [],
										"body": {
											"mode": "raw",
											"raw": "{\r\n    \"type\":\"INCOME\",\r\n    \"name\":\"Uang Mingguan\",\r\n    \"amount\":100000,\r\n    \"date\":\"2023-01-01 19:00\"\r\n}",
											"options": {
												"raw": {
													"language": "json"
												}
											}
										},
										"url": {
											"raw": "{{base_url}}/api/v1/transaction/:id",
											"host": [
												"{{base_url}}"
											],
											"path": [
												"api",
												"v1",
												"transaction",
												":id"
											],
											"variable": [
												{
													"key": "id",
													"value": "2"
												}
											]
										}
									},
									"status": "OK",
									"code": 200,
									"_postman_previewlanguage": "json",
									"header": [
										{
											"key": "X-Powered-By",
											"value": "Express"
										},
										{
											"key": "Content-Type",
											"value": "application/json; charset=utf-8"
										},
										{
											"key": "Content-Length",
											"value": "80"
										},
										{
											"key": "ETag",
											"value": "W/\"50-NRx3oqgsf8DcFSJ+QDflBHjGjnI\""
										},
										{
											"key": "Date",
											"value": "Thu, 05 Oct 2023 16:54:58 GMT"
										},
										{
											"key": "Connection",
											"value": "keep-alive"
										},
										{
											"key": "Keep-Alive",
											"value": "timeout=5"
										}
									],
									"cookie": [],
									"body": "{\n    \"meta\": {\n        \"status\": \"success\",\n        \"message\": \"Success! update transaction\",\n        \"code\": 200\n    }\n}"
								},
								{
									"name": "Error 404",
									"originalRequest": {
										"method": "PUT",
										"header": [],
										"body": {
											"mode": "raw",
											"raw": "{\r\n    \"type\":\"INCOME\",\r\n    \"name\":\"Uang Mingguan\",\r\n    \"amount\":100000,\r\n    \"date\":\"2023-01-01 19:00\"\r\n}",
											"options": {
												"raw": {
													"language": "json"
												}
											}
										},
										"url": {
											"raw": "{{base_url}}/api/v1/transaction/:id",
											"host": [
												"{{base_url}}"
											],
											"path": [
												"api",
												"v1",
												"transaction",
												":id"
											],
											"variable": [
												{
													"key": "id",
													"value": "22"
												}
											]
										}
									},
									"status": "Not Found",
									"code": 404,
									"_postman_previewlanguage": "json",
									"header": [
										{
											"key": "X-Powered-By",
											"value": "Express"
										},
										{
											"key": "Content-Type",
											"value": "application/json; charset=utf-8"
										},
										{
											"key": "Content-Length",
											"value": "88"
										},
										{
											"key": "ETag",
											"value": "W/\"58-xuJ8smB0uvggn532ZwKjeNqnscc\""
										},
										{
											"key": "Date",
											"value": "Thu, 05 Oct 2023 16:55:48 GMT"
										},
										{
											"key": "Connection",
											"value": "keep-alive"
										},
										{
											"key": "Keep-Alive",
											"value": "timeout=5"
										}
									],
									"cookie": [],
									"body": "{\n    \"meta\": {\n        \"status\": \"failure\",\n        \"message\": \"Transaction not found\",\n        \"code\": 404\n    },\n    \"errors\": null\n}"
								}
							]
						},
						{
							"name": "Delete",
							"request": {
								"method": "DELETE",
								"header": [],
								"url": {
									"raw": "{{base_url}}/api/v1/transaction/:id",
									"host": [
										"{{base_url}}"
									],
									"path": [
										"api",
										"v1",
										"transaction",
										":id"
									],
									"variable": [
										{
											"key": "id",
											"value": "4"
										}
									]
								}
							},
							"response": [
								{
									"name": "Success",
									"originalRequest": {
										"method": "DELETE",
										"header": [],
										"url": {
											"raw": "{{base_url}}/api/v1/transaction/:id",
											"host": [
												"{{base_url}}"
											],
											"path": [
												"api",
												"v1",
												"transaction",
												":id"
											],
											"variable": [
												{
													"key": "id",
													"value": "2"
												}
											]
										}
									},
									"status": "OK",
									"code": 200,
									"_postman_previewlanguage": "json",
									"header": [
										{
											"key": "X-Powered-By",
											"value": "Express"
										},
										{
											"key": "Content-Type",
											"value": "application/json; charset=utf-8"
										},
										{
											"key": "Content-Length",
											"value": "80"
										},
										{
											"key": "ETag",
											"value": "W/\"50-wlgnKWZpwFUz17Xp54FebEnAmQM\""
										},
										{
											"key": "Date",
											"value": "Thu, 05 Oct 2023 16:57:00 GMT"
										},
										{
											"key": "Connection",
											"value": "keep-alive"
										},
										{
											"key": "Keep-Alive",
											"value": "timeout=5"
										}
									],
									"cookie": [],
									"body": "{\n    \"meta\": {\n        \"status\": \"success\",\n        \"message\": \"Success! delete transaction\",\n        \"code\": 200\n    }\n}"
								}
							]
						}
					]
				}
			],
			"description": "The `/me` endpoints let you manage information about the authenticated user."
		}
	],
	"auth": {
		"type": "bearer",
		"bearer": [
			{
				"key": "token",
				"value": "{{user_token}}",
				"type": "string"
			}
		]
	},
	"event": [
		{
			"listen": "prerequest",
			"script": {
				"type": "text/javascript",
				"exec": [
					""
				]
			}
		},
		{
			"listen": "test",
			"script": {
				"type": "text/javascript",
				"exec": [
					""
				]
			}
		}
	],
	"variable": [
		{
			"key": "baseUrl",
			"value": "https://farming-simulator.pstmn.io"
		}
	]
}